﻿code;type
29=covid;Viral
35=rhinovirus;Viral
9=Enterobacteries;Bacterien
1=staphylocoques;Bacterien
11=anaerobies;Bacterien
6=Branhamella/Hi;Bacterien
gardiaintestinalis;Parasitaire
10=pyoetautresnonfermentants;Bacterien
Acinetobacter;Bacterien
VHB;Viral
7=Neisseria;Bacterien
HHV6;Viral
18=Aspergillus;Fongique
21=adenovirus;Viral
24=grippe;Viral
26=VZV;Viral
4=enterocoques;Bacterien
Campylobacterjejuni;Bacterien
22=CMV;Viral
17=Candida;Fongique
33=toxoplasmagondii;Parasitaire
30=metapneumovirus;Viral
3=pneumocoque;Bacterien
28=sapovirus;Viral
25=HSV;Viral
20=autresfilamenteux;Fongique
31=VRS;Viral
23=enterovirus;Viral
2=streptocoques;Viral
19=Mucorales;Fongique
Pneumocystisjirovecii;Fongique
32=JCvirus/polyomavirus;Viral
Coronavirus;Viral
Clostridiumdifficile;Bacterien
ParvoB19;Viral
 24=grippeetparainfluenzae;Viral
rhinovirus;Viral